{
  "_name_or_path": "mrm8488/codebert-base-finetuned-stackoverflow-ner",
  "architectures": [
    "RobertaForSequenceClassification"
  ],
  "attention_probs_dropout_prob": 0.1,
  "bos_token_id": 0,
  "classifier_dropout": null,
  "eos_token_id": 2,
  "gradient_checkpointing": false,
  "hidden_act": "gelu",
  "hidden_dropout_prob": 0.1,
  "hidden_size": 768,
  "id2label": {
    "0": ".net",
    "1": "android",
    "2": "asp.net",
    "3": "c",
    "4": "c#",
    "5": "c++",
    "6": "css",
    "7": "html",
    "8": "ios",
    "9": "iphone",
    "10": "java",
    "11": "javascript",
    "12": "jquery",
    "13": "linux",
    "14": "node.js",
    "15": "objective-c",
    "16": "php",
    "17": "python",
    "18": "ruby-on-rails",
    "19": "sql"
  },
  "initializer_range": 0.02,
  "intermediate_size": 3072,
  "label2id": {
    ".net": 0,
    "android": 1,
    "asp.net": 2,
    "c": 3,
    "c#": 4,
    "c++": 5,
    "css": 6,
    "html": 7,
    "ios": 8,
    "iphone": 9,
    "java": 10,
    "javascript": 11,
    "jquery": 12,
    "linux": 13,
    "node.js": 14,
    "objective-c": 15,
    "php": 16,
    "python": 17,
    "ruby-on-rails": 18,
    "sql": 19
  },
  "layer_norm_eps": 1e-05,
  "max_position_embeddings": 514,
  "model_type": "roberta",
  "num_attention_heads": 12,
  "num_hidden_layers": 12,
  "output_past": true,
  "pad_token_id": 1,
  "position_embedding_type": "absolute",
  "problem_type": "multi_label_classification",
  "torch_dtype": "float32",
  "transformers_version": "4.26.0",
  "type_vocab_size": 1,
  "use_cache": true,
  "vocab_size": 50265
}
